[{"page":1,"pages":273,"per_page":"50","total":13608},[{"indicator":{"id":"NY.GDP.MKTP.CD","value":"GDP (current US$)"},"country":{"id":"1A","value":"Arab World"},"value":"1787533092073.86","decimal":"0","date":"2009"},{"indicator":{"id":"NY.GDP.MKTP.CD","value":"GDP (current US$)"},"country":{"id":"1A","value":"Arab World"},"value":"2077337968082.01","decimal":"0","date":"2008"},{"indicator":{"id":"NY.GDP.MKTP.CD","value":"GDP (current US$)"},"country":{"id":"1A","value":"Arab World"},"value":"1635002632321.48","decimal":"0","date":"2007"},{"indicator":{"id":"NY.GDP.MKTP.CD","value":"GDP (current US$)"},"country":{"id":"1A","value":"Arab World"},"value":"1399450287556.99","decimal":"0","date":"2006"},{"indicator":{"id":"NY.GDP.MKTP.CD","value":"GDP (current US$)"},"country":{"id":"1A","value":"Arab World"},"value":"1176005290522.1","decimal":"0","date":"2005"},{"indicator":{"id":"NY.GDP.MKTP.CD","value":"GDP (current US$)"},"country":{"id":"1A","value":"Arab World"},"value":"959760322901.021","decimal":"0","date":"2004"},{"indicator":{"id":"NY.GDP.MKTP.CD","value":"GDP (current US$)"},"country":{"id":"1A","value":"Arab World"},"value":"814878976970.564","decimal":"0","date":"2003"},{"indicator":{"id":"NY.GDP.MKTP.CD","value":"GDP (current US$)"},"country":{"id":"1A","value":"Arab World"},"value":"723333359523.228","decimal":"0","date":"2002"},{"indicator":{"id":"NY.GDP.MKTP.CD","value":"GDP (current US$)"},"country":{"id":"1A","value":"Arab World"},"value":"712992304445.908","decimal":"0","date":"2001"},{"indicator":{"id":"NY.GDP.MKTP.CD","value":"GDP (current US$)"},"country":{"id":"1A","value":"Arab World"},"value":"726387152357.065","decimal":"0","date":"2000"},{"indicator":{"id":"NY.GDP.MKTP.CD","value":"GDP (current US$)"},"country":{"id":"1A","value":"Arab World"},"value":"634222169376.861","decimal":"0","date":"1999"},{"indicator":{"id":"NY.GDP.MKTP.CD","value":"GDP (current US$)"},"country":{"id":"1A","value":"Arab World"},"value":"587516735057.942","decimal":"0","date":"1998"},{"indicator":{"id":"NY.GDP.MKTP.CD","value":"GDP (current US$)"},"country":{"id":"1A","value":"Arab World"},"value":"605214631589.468","decimal":"0","date":"1997"},{"indicator":{"id":"NY.GDP.MKTP.CD","value":"GDP (current US$)"},"country":{"id":"1A","value":"Arab World"},"value":"569468342373.765","decimal":"0","date":"1996"},{"indicator":{"id":"NY.GDP.MKTP.CD","value":"GDP (current US$)"},"country":{"id":"1A","value":"Arab World"},"value":"515604922239.81","decimal":"0","date":"1995"},{"indicator":{"id":"NY.GDP.MKTP.CD","value":"GDP (current US$)"},"country":{"id":"1A","value":"Arab World"},"value":"480349758849.15","decimal":"0","date":"1994"},{"indicator":{"id":"NY.GDP.MKTP.CD","value":"GDP (current US$)"},"country":{"id":"1A","value":"Arab World"},"value":"469805173123.377","decimal":"0","date":"1993"},{"indicator":{"id":"NY.GDP.MKTP.CD","value":"GDP (current US$)"},"country":{"id":"1A","value":"Arab World"},"value":"464072521779.663","decimal":"0","date":"1992"},{"indicator":{"id":"NY.GDP.MKTP.CD","value":"GDP (current US$)"},"country":{"id":"1A","value":"Arab World"},"value":"433476996282.91","decimal":"0","date":"1991"},{"indicator":{"id":"NY.GDP.MKTP.CD","value":"GDP (current US$)"},"country":{"id":"1A","value":"Arab World"},"value":"440698260258.101","decimal":"0","date":"1990"},{"indicator":{"id":"NY.GDP.MKTP.CD","value":"GDP (current US$)"},"country":{"id":"1A","value":"Arab World"},"value":"391734443870.187","decimal":"0","date":"1989"},{"indicator":{"id":"NY.GDP.MKTP.CD","value":"GDP (current US$)"},"country":{"id":"1A","value":"Arab World"},"value":"373743549633.722","decimal":"0","date":"1988"},{"indicator":{"id":"NY.GDP.MKTP.CD","value":"GDP (current US$)"},"country":{"id":"1A","value":"Arab World"},"value":"389032531640.408","decimal":"0","date":"1987"},{"indicator":{"id":"NY.GDP.MKTP.CD","value":"GDP (current US$)"},"country":{"id":"1A","value":"Arab World"},"value":"365682278205.487","decimal":"0","date":"1986"},{"indicator":{"id":"NY.GDP.MKTP.CD","value":"GDP (current US$)"},"country":{"id":"1A","value":"Arab World"},"value":"386202901909.457","decimal":"0","date":"1985"},{"indicator":{"id":"NY.GDP.MKTP.CD","value":"GDP (current US$)"},"country":{"id":"1A","value":"Arab World"},"value":"393716037754.62","decimal":"0","date":"1984"},{"indicator":{"id":"NY.GDP.MKTP.CD","value":"GDP (current US$)"},"country":{"id":"1A","value":"Arab World"},"value":"394628789330.046","decimal":"0","date":"1983"},{"indicator":{"id":"NY.GDP.MKTP.CD","value":"GDP (current US$)"},"country":{"id":"1A","value":"Arab World"},"value":"421840585406.58","decimal":"0","date":"1982"},{"indicator":{"id":"NY.GDP.MKTP.CD","value":"GDP (current US$)"},"country":{"id":"1A","value":"Arab World"},"value":"461079889126.49","decimal":"0","date":"1981"},{"indicator":{"id":"NY.GDP.MKTP.CD","value":"GDP (current US$)"},"country":{"id":"1A","value":"Arab World"},"value":"428925872477.036","decimal":"0","date":"1980"},{"indicator":{"id":"NY.GDP.MKTP.CD","value":"GDP (current US$)"},"country":{"id":"1A","value":"Arab World"},"value":"318904241331.638","decimal":"0","date":"1979"},{"indicator":{"id":"NY.GDP.MKTP.CD","value":"GDP (current US$)"},"country":{"id":"1A","value":"Arab World"},"value":"241372285714.069","decimal":"0","date":"1978"},{"indicator":{"id":"NY.GDP.MKTP.CD","value":"GDP (current US$)"},"country":{"id":"1A","value":"Arab World"},"value":"220221643943.517","decimal":"0","date":"1977"},{"indicator":{"id":"NY.GDP.MKTP.CD","value":"GDP (current US$)"},"country":{"id":"1A","value":"Arab World"},"value":"190472089481.695","decimal":"0","date":"1976"},{"indicator":{"id":"NY.GDP.MKTP.CD","value":"GDP (current US$)"},"country":{"id":"1A","value":"Arab World"},"value":"153858434291.174","decimal":"0","date":"1975"},{"indicator":{"id":"NY.GDP.MKTP.CD","value":"GDP (current US$)"},"country":{"id":"1A","value":"Arab World"},"value":"139500375919.911","decimal":"0","date":"1974"},{"indicator":{"id":"NY.GDP.MKTP.CD","value":"GDP (current US$)"},"country":{"id":"1A","value":"Arab World"},"value":"73919633118.6943","decimal":"0","date":"1973"},{"indicator":{"id":"NY.GDP.MKTP.CD","value":"GDP (current US$)"},"country":{"id":"1A","value":"Arab World"},"value":"58066103432.7681","decimal":"0","date":"1972"},{"indicator":{"id":"NY.GDP.MKTP.CD","value":"GDP (current US$)"},"country":{"id":"1A","value":"Arab World"},"value":"48202915293.8918","decimal":"0","date":"1971"},{"indicator":{"id":"NY.GDP.MKTP.CD","value":"GDP (current US$)"},"country":{"id":"1A","value":"Arab World"},"value":"41570893872.3634","decimal":"0","date":"1970"},{"indicator":{"id":"NY.GDP.MKTP.CD","value":"GDP (current US$)"},"country":{"id":"1A","value":"Arab World"},"value":"38079564301.5145","decimal":"0","date":"1969"},{"indicator":{"id":"NY.GDP.MKTP.CD","value":"GDP (current US$)"},"country":{"id":"1A","value":"Arab World"},"value":"34290911919.2381","decimal":"0","date":"1968"},{"indicator":{"id":"NY.GDP.MKTP.CD","value":"GDP (current US$)"},"country":{"id":"1A","value":"Arab World"},"value":null,"decimal":"0","date":"1967"},{"indicator":{"id":"NY.GDP.MKTP.CD","value":"GDP (current US$)"},"country":{"id":"1A","value":"Arab World"},"value":null,"decimal":"0","date":"1966"},{"indicator":{"id":"NY.GDP.MKTP.CD","value":"GDP (current US$)"},"country":{"id":"1A","value":"Arab World"},"value":null,"decimal":"0","date":"1965"},{"indicator":{"id":"NY.GDP.MKTP.CD","value":"GDP (current US$)"},"country":{"id":"1A","value":"Arab World"},"value":null,"decimal":"0","date":"1964"},{"indicator":{"id":"NY.GDP.MKTP.CD","value":"GDP (current US$)"},"country":{"id":"1A","value":"Arab World"},"value":null,"decimal":"0","date":"1963"},{"indicator":{"id":"NY.GDP.MKTP.CD","value":"GDP (current US$)"},"country":{"id":"1A","value":"Arab World"},"value":null,"decimal":"0","date":"1962"},{"indicator":{"id":"NY.GDP.MKTP.CD","value":"GDP (current US$)"},"country":{"id":"1A","value":"Arab World"},"value":null,"decimal":"0","date":"1961"},{"indicator":{"id":"NY.GDP.MKTP.CD","value":"GDP (current US$)"},"country":{"id":"1A","value":"Arab World"},"value":null,"decimal":"0","date":"1960"}]]